([('link2browser',
   '/home/andy/Coding/link2browser/build/link2browser/link2browser',
   'EXECUTABLE'),
  ('lib-dynload/_struct.cpython-310-x86_64-linux-gnu.so',
   '/usr/lib/python3.10/lib-dynload/_struct.cpython-310-x86_64-linux-gnu.so',
   'EXTENSION'),
  ('lib-dynload/zlib.cpython-310-x86_64-linux-gnu.so',
   '/usr/lib/python3.10/lib-dynload/zlib.cpython-310-x86_64-linux-gnu.so',
   'EXTENSION'),
  ('libpython3.10.so.1.0', '/usr/lib/libpython3.10.so.1.0', 'BINARY'),
  ('ld-linux-x86-64.so.2', '/usr/lib64/ld-linux-x86-64.so.2', 'BINARY'),
  ('lib-dynload/_posixshmem',
   '/usr/lib/python3.10/lib-dynload/_posixshmem.cpython-310-x86_64-linux-gnu.so',
   'EXTENSION'),
  ('lib-dynload/_multiprocessing',
   '/usr/lib/python3.10/lib-dynload/_multiprocessing.cpython-310-x86_64-linux-gnu.so',
   'EXTENSION'),
  ('lib-dynload/_datetime',
   '/usr/lib/python3.10/lib-dynload/_datetime.cpython-310-x86_64-linux-gnu.so',
   'EXTENSION'),
  ('lib-dynload/math',
   '/usr/lib/python3.10/lib-dynload/math.cpython-310-x86_64-linux-gnu.so',
   'EXTENSION'),
  ('lib-dynload/_statistics',
   '/usr/lib/python3.10/lib-dynload/_statistics.cpython-310-x86_64-linux-gnu.so',
   'EXTENSION'),
  ('lib-dynload/_contextvars',
   '/usr/lib/python3.10/lib-dynload/_contextvars.cpython-310-x86_64-linux-gnu.so',
   'EXTENSION'),
  ('lib-dynload/_decimal',
   '/usr/lib/python3.10/lib-dynload/_decimal.cpython-310-x86_64-linux-gnu.so',
   'EXTENSION'),
  ('lib-dynload/_opcode',
   '/usr/lib/python3.10/lib-dynload/_opcode.cpython-310-x86_64-linux-gnu.so',
   'EXTENSION'),
  ('lib-dynload/_pickle',
   '/usr/lib/python3.10/lib-dynload/_pickle.cpython-310-x86_64-linux-gnu.so',
   'EXTENSION'),
  ('lib-dynload/_hashlib',
   '/usr/lib/python3.10/lib-dynload/_hashlib.cpython-310-x86_64-linux-gnu.so',
   'EXTENSION'),
  ('lib-dynload/_sha3',
   '/usr/lib/python3.10/lib-dynload/_sha3.cpython-310-x86_64-linux-gnu.so',
   'EXTENSION'),
  ('lib-dynload/_blake2',
   '/usr/lib/python3.10/lib-dynload/_blake2.cpython-310-x86_64-linux-gnu.so',
   'EXTENSION'),
  ('lib-dynload/_sha256',
   '/usr/lib/python3.10/lib-dynload/_sha256.cpython-310-x86_64-linux-gnu.so',
   'EXTENSION'),
  ('lib-dynload/_md5',
   '/usr/lib/python3.10/lib-dynload/_md5.cpython-310-x86_64-linux-gnu.so',
   'EXTENSION'),
  ('lib-dynload/_sha1',
   '/usr/lib/python3.10/lib-dynload/_sha1.cpython-310-x86_64-linux-gnu.so',
   'EXTENSION'),
  ('lib-dynload/_sha512',
   '/usr/lib/python3.10/lib-dynload/_sha512.cpython-310-x86_64-linux-gnu.so',
   'EXTENSION'),
  ('lib-dynload/_random',
   '/usr/lib/python3.10/lib-dynload/_random.cpython-310-x86_64-linux-gnu.so',
   'EXTENSION'),
  ('lib-dynload/_bisect',
   '/usr/lib/python3.10/lib-dynload/_bisect.cpython-310-x86_64-linux-gnu.so',
   'EXTENSION'),
  ('lib-dynload/array',
   '/usr/lib/python3.10/lib-dynload/array.cpython-310-x86_64-linux-gnu.so',
   'EXTENSION'),
  ('lib-dynload/select',
   '/usr/lib/python3.10/lib-dynload/select.cpython-310-x86_64-linux-gnu.so',
   'EXTENSION'),
  ('lib-dynload/_socket',
   '/usr/lib/python3.10/lib-dynload/_socket.cpython-310-x86_64-linux-gnu.so',
   'EXTENSION'),
  ('lib-dynload/_csv',
   '/usr/lib/python3.10/lib-dynload/_csv.cpython-310-x86_64-linux-gnu.so',
   'EXTENSION'),
  ('lib-dynload/_struct',
   '/usr/lib/python3.10/lib-dynload/_struct.cpython-310-x86_64-linux-gnu.so',
   'EXTENSION'),
  ('lib-dynload/binascii',
   '/usr/lib/python3.10/lib-dynload/binascii.cpython-310-x86_64-linux-gnu.so',
   'EXTENSION'),
  ('lib-dynload/grp',
   '/usr/lib/python3.10/lib-dynload/grp.cpython-310-x86_64-linux-gnu.so',
   'EXTENSION'),
  ('lib-dynload/resource',
   '/usr/lib/python3.10/lib-dynload/resource.cpython-310-x86_64-linux-gnu.so',
   'EXTENSION'),
  ('lib-dynload/_lzma',
   '/usr/lib/python3.10/lib-dynload/_lzma.cpython-310-x86_64-linux-gnu.so',
   'EXTENSION'),
  ('lib-dynload/_bz2',
   '/usr/lib/python3.10/lib-dynload/_bz2.cpython-310-x86_64-linux-gnu.so',
   'EXTENSION'),
  ('lib-dynload/zlib',
   '/usr/lib/python3.10/lib-dynload/zlib.cpython-310-x86_64-linux-gnu.so',
   'EXTENSION'),
  ('lib-dynload/pyexpat',
   '/usr/lib/python3.10/lib-dynload/pyexpat.cpython-310-x86_64-linux-gnu.so',
   'EXTENSION'),
  ('lib-dynload/_ssl',
   '/usr/lib/python3.10/lib-dynload/_ssl.cpython-310-x86_64-linux-gnu.so',
   'EXTENSION'),
  ('lib-dynload/_posixsubprocess',
   '/usr/lib/python3.10/lib-dynload/_posixsubprocess.cpython-310-x86_64-linux-gnu.so',
   'EXTENSION'),
  ('lib-dynload/mmap',
   '/usr/lib/python3.10/lib-dynload/mmap.cpython-310-x86_64-linux-gnu.so',
   'EXTENSION'),
  ('lib-dynload/_ctypes',
   '/usr/lib/python3.10/lib-dynload/_ctypes.cpython-310-x86_64-linux-gnu.so',
   'EXTENSION'),
  ('lib-dynload/_queue',
   '/usr/lib/python3.10/lib-dynload/_queue.cpython-310-x86_64-linux-gnu.so',
   'EXTENSION'),
  ('lib-dynload/termios',
   '/usr/lib/python3.10/lib-dynload/termios.cpython-310-x86_64-linux-gnu.so',
   'EXTENSION'),
  ('lib-dynload/unicodedata',
   '/usr/lib/python3.10/lib-dynload/unicodedata.cpython-310-x86_64-linux-gnu.so',
   'EXTENSION'),
  ('lib-dynload/_multibytecodec',
   '/usr/lib/python3.10/lib-dynload/_multibytecodec.cpython-310-x86_64-linux-gnu.so',
   'EXTENSION'),
  ('lib-dynload/_codecs_jp',
   '/usr/lib/python3.10/lib-dynload/_codecs_jp.cpython-310-x86_64-linux-gnu.so',
   'EXTENSION'),
  ('lib-dynload/_codecs_kr',
   '/usr/lib/python3.10/lib-dynload/_codecs_kr.cpython-310-x86_64-linux-gnu.so',
   'EXTENSION'),
  ('lib-dynload/_codecs_iso2022',
   '/usr/lib/python3.10/lib-dynload/_codecs_iso2022.cpython-310-x86_64-linux-gnu.so',
   'EXTENSION'),
  ('lib-dynload/_codecs_cn',
   '/usr/lib/python3.10/lib-dynload/_codecs_cn.cpython-310-x86_64-linux-gnu.so',
   'EXTENSION'),
  ('lib-dynload/_codecs_tw',
   '/usr/lib/python3.10/lib-dynload/_codecs_tw.cpython-310-x86_64-linux-gnu.so',
   'EXTENSION'),
  ('lib-dynload/_codecs_hk',
   '/usr/lib/python3.10/lib-dynload/_codecs_hk.cpython-310-x86_64-linux-gnu.so',
   'EXTENSION'),
  ('lib-dynload/_heapq',
   '/usr/lib/python3.10/lib-dynload/_heapq.cpython-310-x86_64-linux-gnu.so',
   'EXTENSION'),
  ('lib-dynload/fcntl',
   '/usr/lib/python3.10/lib-dynload/fcntl.cpython-310-x86_64-linux-gnu.so',
   'EXTENSION'),
  ('lib-dynload/_json',
   '/usr/lib/python3.10/lib-dynload/_json.cpython-310-x86_64-linux-gnu.so',
   'EXTENSION'),
  ('lib-dynload/_tkinter',
   '/usr/lib/python3.10/lib-dynload/_tkinter.cpython-310-x86_64-linux-gnu.so',
   'EXTENSION'),
  ('lib-dynload/readline',
   '/usr/lib/python3.10/lib-dynload/readline.cpython-310-x86_64-linux-gnu.so',
   'EXTENSION'),
  ('lib-dynload/_uuid',
   '/usr/lib/python3.10/lib-dynload/_uuid.cpython-310-x86_64-linux-gnu.so',
   'EXTENSION'),
  ('cryptography.hazmat.bindings._rust',
   '/usr/lib/python3.10/site-packages/cryptography/hazmat/bindings/_rust.abi3.so',
   'EXTENSION'),
  ('_cffi_backend',
   '/usr/lib/python3.10/site-packages/_cffi_backend.cpython-310-x86_64-linux-gnu.so',
   'EXTENSION'),
  ('lib-dynload/_asyncio',
   '/usr/lib/python3.10/lib-dynload/_asyncio.cpython-310-x86_64-linux-gnu.so',
   'EXTENSION'),
  ('markupsafe._speedups',
   '/usr/lib/python3.10/site-packages/markupsafe/_speedups.cpython-310-x86_64-linux-gnu.so',
   'EXTENSION'),
  ('libcrypto.so.3', '/usr/lib/libcrypto.so.3', 'BINARY'),
  ('libz.so.1', '/usr/lib/libz.so.1', 'BINARY'),
  ('liblzma.so.5', '/usr/lib/liblzma.so.5', 'BINARY'),
  ('libbz2.so.1.0', '/usr/lib/libbz2.so.1.0', 'BINARY'),
  ('libexpat.so.1', '/usr/lib/libexpat.so.1', 'BINARY'),
  ('libssl.so.3', '/usr/lib/libssl.so.3', 'BINARY'),
  ('libffi.so.8', '/usr/lib/libffi.so.8', 'BINARY'),
  ('libX11.so.6', '/usr/lib/libX11.so.6', 'BINARY'),
  ('libXss.so.1', '/usr/lib/libXss.so.1', 'BINARY'),
  ('libgraphite2.so.3', '/usr/lib/libgraphite2.so.3', 'BINARY'),
  ('libfreetype.so.6', '/usr/lib/libfreetype.so.6', 'BINARY'),
  ('libfontconfig.so.1', '/usr/lib/libfontconfig.so.1', 'BINARY'),
  ('libharfbuzz.so.0', '/usr/lib/libharfbuzz.so.0', 'BINARY'),
  ('libbrotlicommon.so.1', '/usr/lib/libbrotlicommon.so.1', 'BINARY'),
  ('libtcl8.6.so', '/usr/lib/libtcl8.6.so', 'BINARY'),
  ('libXext.so.6', '/usr/lib/libXext.so.6', 'BINARY'),
  ('libXrender.so.1', '/usr/lib/libXrender.so.1', 'BINARY'),
  ('libXdmcp.so.6', '/usr/lib/libXdmcp.so.6', 'BINARY'),
  ('libpng16.so.16', '/usr/lib/libpng16.so.16', 'BINARY'),
  ('libXau.so.6', '/usr/lib/libXau.so.6', 'BINARY'),
  ('libbrotlidec.so.1', '/usr/lib/libbrotlidec.so.1', 'BINARY'),
  ('libtk8.6.so', '/usr/lib/libtk8.6.so', 'BINARY'),
  ('libXft.so.2', '/usr/lib/libXft.so.2', 'BINARY'),
  ('libpcre2-8.so.0', '/usr/lib/libpcre2-8.so.0', 'BINARY'),
  ('libglib-2.0.so.0', '/usr/lib/libglib-2.0.so.0', 'BINARY'),
  ('libncursesw.so.6', '/usr/lib/libncursesw.so.6', 'BINARY'),
  ('libreadline.so.8', '/usr/lib/libreadline.so.8', 'BINARY'),
  ('libuuid.so.1', '/usr/lib/libuuid.so.1', 'BINARY'),
  ('libgcc_s.so.1', '/usr/lib/libgcc_s.so.1', 'BINARY'),
  ('base_library.zip',
   '/home/andy/Coding/link2browser/build/link2browser/base_library.zip',
   'DATA'),
  ('tk/scrlbar.tcl', '/usr/lib/tk8.6/scrlbar.tcl', 'DATA'),
  ('tcl8/8.6/tdbc/sqlite3-1.1.5.tm',
   '/usr/lib/tcl8.6/../tcl8/8.6/tdbc/sqlite3-1.1.5.tm',
   'DATA'),
  ('tcl/msgs/fi.msg', '/usr/lib/tcl8.6/msgs/fi.msg', 'DATA'),
  ('tk/ttk/entry.tcl', '/usr/lib/tk8.6/ttk/entry.tcl', 'DATA'),
  ('tcl/encoding/cp1253.enc', '/usr/lib/tcl8.6/encoding/cp1253.enc', 'DATA'),
  ('tk/tkAppInit.c', '/usr/lib/tk8.6/tkAppInit.c', 'DATA'),
  ('tcl/encoding/cp850.enc', '/usr/lib/tcl8.6/encoding/cp850.enc', 'DATA'),
  ('tcl/encoding/iso2022-jp.enc',
   '/usr/lib/tcl8.6/encoding/iso2022-jp.enc',
   'DATA'),
  ('tcl/msgs/ga.msg', '/usr/lib/tcl8.6/msgs/ga.msg', 'DATA'),
  ('tcl/encoding/cp865.enc', '/usr/lib/tcl8.6/encoding/cp865.enc', 'DATA'),
  ('tcl/encoding/macTurkish.enc',
   '/usr/lib/tcl8.6/encoding/macTurkish.enc',
   'DATA'),
  ('tcl/msgs/gl.msg', '/usr/lib/tcl8.6/msgs/gl.msg', 'DATA'),
  ('tcl/msgs/lv.msg', '/usr/lib/tcl8.6/msgs/lv.msg', 'DATA'),
  ('tcl/encoding/iso8859-11.enc',
   '/usr/lib/tcl8.6/encoding/iso8859-11.enc',
   'DATA'),
  ('tcl/msgs/fr_be.msg', '/usr/lib/tcl8.6/msgs/fr_be.msg', 'DATA'),
  ('tcl/msgs/bn.msg', '/usr/lib/tcl8.6/msgs/bn.msg', 'DATA'),
  ('tcl/encoding/iso8859-14.enc',
   '/usr/lib/tcl8.6/encoding/iso8859-14.enc',
   'DATA'),
  ('tcl/encoding/big5.enc', '/usr/lib/tcl8.6/encoding/big5.enc', 'DATA'),
  ('tcl8/8.4/platform-1.0.19.tm',
   '/usr/lib/tcl8.6/../tcl8/8.4/platform-1.0.19.tm',
   'DATA'),
  ('tcl/encoding/cp864.enc', '/usr/lib/tcl8.6/encoding/cp864.enc', 'DATA'),
  ('tcl/msgs/ta.msg', '/usr/lib/tcl8.6/msgs/ta.msg', 'DATA'),
  ('tcl/msgs/es_pe.msg', '/usr/lib/tcl8.6/msgs/es_pe.msg', 'DATA'),
  ('tcl/encoding/cp737.enc', '/usr/lib/tcl8.6/encoding/cp737.enc', 'DATA'),
  ('tk/msgbox.tcl', '/usr/lib/tk8.6/msgbox.tcl', 'DATA'),
  ('tcl/encoding/cp950.enc', '/usr/lib/tcl8.6/encoding/cp950.enc', 'DATA'),
  ('tk/msgs/hu.msg', '/usr/lib/tk8.6/msgs/hu.msg', 'DATA'),
  ('tcl/tclAppInit.c', '/usr/lib/tcl8.6/tclAppInit.c', 'DATA'),
  ('tcl/encoding/cns11643.enc',
   '/usr/lib/tcl8.6/encoding/cns11643.enc',
   'DATA'),
  ('tcl/parray.tcl', '/usr/lib/tcl8.6/parray.tcl', 'DATA'),
  ('tcl/graphviz/libgdtclft.so',
   '/usr/lib/tcl8.6/graphviz/libgdtclft.so',
   'DATA'),
  ('tcl/msgs/fr.msg', '/usr/lib/tcl8.6/msgs/fr.msg', 'DATA'),
  ('tk/msgs/sv.msg', '/usr/lib/tk8.6/msgs/sv.msg', 'DATA'),
  ('tcl/msgs/nb.msg', '/usr/lib/tcl8.6/msgs/nb.msg', 'DATA'),
  ('tk/ttk/altTheme.tcl', '/usr/lib/tk8.6/ttk/altTheme.tcl', 'DATA'),
  ('tcl/msgs/en_ph.msg', '/usr/lib/tcl8.6/msgs/en_ph.msg', 'DATA'),
  ('tcl/msgs/te_in.msg', '/usr/lib/tcl8.6/msgs/te_in.msg', 'DATA'),
  ('tcl/encoding/cp866.enc', '/usr/lib/tcl8.6/encoding/cp866.enc', 'DATA'),
  ('cryptography-40.0.1-py3.10.egg-info/not-zip-safe',
   '/usr/lib/python3.10/site-packages/cryptography-40.0.1-py3.10.egg-info/not-zip-safe',
   'DATA'),
  ('tcl/msgs/is.msg', '/usr/lib/tcl8.6/msgs/is.msg', 'DATA'),
  ('tcl/msgs/fa_ir.msg', '/usr/lib/tcl8.6/msgs/fa_ir.msg', 'DATA'),
  ('tcl/msgs/eo.msg', '/usr/lib/tcl8.6/msgs/eo.msg', 'DATA'),
  ('tcl/msgs/pt.msg', '/usr/lib/tcl8.6/msgs/pt.msg', 'DATA'),
  ('tk/icons.tcl', '/usr/lib/tk8.6/icons.tcl', 'DATA'),
  ('tcl/msgs/ar.msg', '/usr/lib/tcl8.6/msgs/ar.msg', 'DATA'),
  ('tcl/msgs/lt.msg', '/usr/lib/tcl8.6/msgs/lt.msg', 'DATA'),
  ('tk/unsupported.tcl', '/usr/lib/tk8.6/unsupported.tcl', 'DATA'),
  ('tcl/tm.tcl', '/usr/lib/tcl8.6/tm.tcl', 'DATA'),
  ('tk/ttk/menubutton.tcl', '/usr/lib/tk8.6/ttk/menubutton.tcl', 'DATA'),
  ('tcl/encoding/cp1252.enc', '/usr/lib/tcl8.6/encoding/cp1252.enc', 'DATA'),
  ('tcl/encoding/cp855.enc', '/usr/lib/tcl8.6/encoding/cp855.enc', 'DATA'),
  ('tk/images/logoLarge.gif', '/usr/lib/tk8.6/images/logoLarge.gif', 'DATA'),
  ('tcl/encoding/jis0201.enc', '/usr/lib/tcl8.6/encoding/jis0201.enc', 'DATA'),
  ('tcl/msgs/ko.msg', '/usr/lib/tcl8.6/msgs/ko.msg', 'DATA'),
  ('tk/images/tai-ku.gif', '/usr/lib/tk8.6/images/tai-ku.gif', 'DATA'),
  ('tcl/msgs/kw_gb.msg', '/usr/lib/tcl8.6/msgs/kw_gb.msg', 'DATA'),
  ('tcl/encoding/cp949.enc', '/usr/lib/tcl8.6/encoding/cp949.enc', 'DATA'),
  ('tcl/msgs/en_ca.msg', '/usr/lib/tcl8.6/msgs/en_ca.msg', 'DATA'),
  ('tcl/encoding/iso8859-15.enc',
   '/usr/lib/tcl8.6/encoding/iso8859-15.enc',
   'DATA'),
  ('tcl/msgs/fr_ch.msg', '/usr/lib/tcl8.6/msgs/fr_ch.msg', 'DATA'),
  ('tcl/msgs/en_au.msg', '/usr/lib/tcl8.6/msgs/en_au.msg', 'DATA'),
  ('tcl/encoding/jis0212.enc', '/usr/lib/tcl8.6/encoding/jis0212.enc', 'DATA'),
  ('tcl/encoding/cp874.enc', '/usr/lib/tcl8.6/encoding/cp874.enc', 'DATA'),
  ('tk/images/logo.eps', '/usr/lib/tk8.6/images/logo.eps', 'DATA'),
  ('tcl/encoding/cp860.enc', '/usr/lib/tcl8.6/encoding/cp860.enc', 'DATA'),
  ('tcl/msgs/mr.msg', '/usr/lib/tcl8.6/msgs/mr.msg', 'DATA'),
  ('tcl/msgs/sh.msg', '/usr/lib/tcl8.6/msgs/sh.msg', 'DATA'),
  ('tk/comdlg.tcl', '/usr/lib/tk8.6/comdlg.tcl', 'DATA'),
  ('tk/bgerror.tcl', '/usr/lib/tk8.6/bgerror.tcl', 'DATA'),
  ('tk/msgs/fr.msg', '/usr/lib/tk8.6/msgs/fr.msg', 'DATA'),
  ('tk/scale.tcl', '/usr/lib/tk8.6/scale.tcl', 'DATA'),
  ('tcl8/8.5/msgcat-1.6.1.tm',
   '/usr/lib/tcl8.6/../tcl8/8.5/msgcat-1.6.1.tm',
   'DATA'),
  ('tcl/msgs/th.msg', '/usr/lib/tcl8.6/msgs/th.msg', 'DATA'),
  ('cryptography-40.0.1-py3.10.egg-info/PKG-INFO',
   '/usr/lib/python3.10/site-packages/cryptography-40.0.1-py3.10.egg-info/PKG-INFO',
   'DATA'),
  ('tcl/safe.tcl', '/usr/lib/tcl8.6/safe.tcl', 'DATA'),
  ('tcl/encoding/iso2022-kr.enc',
   '/usr/lib/tcl8.6/encoding/iso2022-kr.enc',
   'DATA'),
  ('tk/mkpsenc.tcl', '/usr/lib/tk8.6/mkpsenc.tcl', 'DATA'),
  ('tcl/history.tcl', '/usr/lib/tcl8.6/history.tcl', 'DATA'),
  ('tcl/encoding/iso8859-16.enc',
   '/usr/lib/tcl8.6/encoding/iso8859-16.enc',
   'DATA'),
  ('tcl/msgs/sw.msg', '/usr/lib/tcl8.6/msgs/sw.msg', 'DATA'),
  ('tcl/msgs/es_cr.msg', '/usr/lib/tcl8.6/msgs/es_cr.msg', 'DATA'),
  ('tcl/msgs/cs.msg', '/usr/lib/tcl8.6/msgs/cs.msg', 'DATA'),
  ('tcl/encoding/cp869.enc', '/usr/lib/tcl8.6/encoding/cp869.enc', 'DATA'),
  ('tcl/msgs/es_ar.msg', '/usr/lib/tcl8.6/msgs/es_ar.msg', 'DATA'),
  ('tcl/package.tcl', '/usr/lib/tcl8.6/package.tcl', 'DATA'),
  ('tcl/msgs/zh_tw.msg', '/usr/lib/tcl8.6/msgs/zh_tw.msg', 'DATA'),
  ('tcl/msgs/en_bw.msg', '/usr/lib/tcl8.6/msgs/en_bw.msg', 'DATA'),
  ('tcl/encoding/macCyrillic.enc',
   '/usr/lib/tcl8.6/encoding/macCyrillic.enc',
   'DATA'),
  ('tcl/msgs/sr.msg', '/usr/lib/tcl8.6/msgs/sr.msg', 'DATA'),
  ('tcl/encoding/iso8859-1.enc',
   '/usr/lib/tcl8.6/encoding/iso8859-1.enc',
   'DATA'),
  ('tcl/msgs/zh_sg.msg', '/usr/lib/tcl8.6/msgs/zh_sg.msg', 'DATA'),
  ('tk/ttk/notebook.tcl', '/usr/lib/tk8.6/ttk/notebook.tcl', 'DATA'),
  ('tk/msgs/ru.msg', '/usr/lib/tk8.6/msgs/ru.msg', 'DATA'),
  ('tk/msgs/el.msg', '/usr/lib/tk8.6/msgs/el.msg', 'DATA'),
  ('tcl/msgs/nl_be.msg', '/usr/lib/tcl8.6/msgs/nl_be.msg', 'DATA'),
  ('tcl/encoding/iso8859-8.enc',
   '/usr/lib/tcl8.6/encoding/iso8859-8.enc',
   'DATA'),
  ('tcl/msgs/de.msg', '/usr/lib/tcl8.6/msgs/de.msg', 'DATA'),
  ('tcl/msgs/it_ch.msg', '/usr/lib/tcl8.6/msgs/it_ch.msg', 'DATA'),
  ('tcl/msgs/en_be.msg', '/usr/lib/tcl8.6/msgs/en_be.msg', 'DATA'),
  ('tcl/encoding/macRoman.enc',
   '/usr/lib/tcl8.6/encoding/macRoman.enc',
   'DATA'),
  ('tcl/msgs/ar_jo.msg', '/usr/lib/tcl8.6/msgs/ar_jo.msg', 'DATA'),
  ('tk/ttk/xpTheme.tcl', '/usr/lib/tk8.6/ttk/xpTheme.tcl', 'DATA'),
  ('tcl/msgs/pt_br.msg', '/usr/lib/tcl8.6/msgs/pt_br.msg', 'DATA'),
  ('tcl/msgs/es_sv.msg', '/usr/lib/tcl8.6/msgs/es_sv.msg', 'DATA'),
  ('tk/spinbox.tcl', '/usr/lib/tk8.6/spinbox.tcl', 'DATA'),
  ('tcl/msgs/ar_in.msg', '/usr/lib/tcl8.6/msgs/ar_in.msg', 'DATA'),
  ('tcl/encoding/gb12345.enc', '/usr/lib/tcl8.6/encoding/gb12345.enc', 'DATA'),
  ('tk/msgs/da.msg', '/usr/lib/tk8.6/msgs/da.msg', 'DATA'),
  ('tcl/graphviz/pkgIndex.tcl',
   '/usr/lib/tcl8.6/graphviz/pkgIndex.tcl',
   'DATA'),
  ('tcl/encoding/cp861.enc', '/usr/lib/tcl8.6/encoding/cp861.enc', 'DATA'),
  ('tcl/encoding/ascii.enc', '/usr/lib/tcl8.6/encoding/ascii.enc', 'DATA'),
  ('tcl/encoding/iso8859-2.enc',
   '/usr/lib/tcl8.6/encoding/iso8859-2.enc',
   'DATA'),
  ('tcl/encoding/cp862.enc', '/usr/lib/tcl8.6/encoding/cp862.enc', 'DATA'),
  ('tcl/http1.0/http.tcl', '/usr/lib/tcl8.6/http1.0/http.tcl', 'DATA'),
  ('tk/msgs/it.msg', '/usr/lib/tk8.6/msgs/it.msg', 'DATA'),
  ('tcl/msgs/fo_fo.msg', '/usr/lib/tcl8.6/msgs/fo_fo.msg', 'DATA'),
  ('tk/ttk/button.tcl', '/usr/lib/tk8.6/ttk/button.tcl', 'DATA'),
  ('tcl8/8.6/http-2.9.8.tm',
   '/usr/lib/tcl8.6/../tcl8/8.6/http-2.9.8.tm',
   'DATA'),
  ('tcl/encoding/cp1255.enc', '/usr/lib/tcl8.6/encoding/cp1255.enc', 'DATA'),
  ('tcl/encoding/macThai.enc', '/usr/lib/tcl8.6/encoding/macThai.enc', 'DATA'),
  ('tcl/encoding/euc-cn.enc', '/usr/lib/tcl8.6/encoding/euc-cn.enc', 'DATA'),
  ('tk/optMenu.tcl', '/usr/lib/tk8.6/optMenu.tcl', 'DATA'),
  ('tk/ttk/clamTheme.tcl', '/usr/lib/tk8.6/ttk/clamTheme.tcl', 'DATA'),
  ('tcl/msgs/gv.msg', '/usr/lib/tcl8.6/msgs/gv.msg', 'DATA'),
  ('tcl/msgs/sk.msg', '/usr/lib/tcl8.6/msgs/sk.msg', 'DATA'),
  ('tcl/msgs/bg.msg', '/usr/lib/tcl8.6/msgs/bg.msg', 'DATA'),
  ('tcl/msgs/en_nz.msg', '/usr/lib/tcl8.6/msgs/en_nz.msg', 'DATA'),
  ('tk/msgs/en_gb.msg', '/usr/lib/tk8.6/msgs/en_gb.msg', 'DATA'),
  ('tcl/encoding/iso8859-9.enc',
   '/usr/lib/tcl8.6/encoding/iso8859-9.enc',
   'DATA'),
  ('tcl/graphviz/libtcldot.so',
   '/usr/lib/tcl8.6/graphviz/libtcldot.so',
   'DATA'),
  ('tcl/msgs/fa.msg', '/usr/lib/tcl8.6/msgs/fa.msg', 'DATA'),
  ('tcl/encoding/ebcdic.enc', '/usr/lib/tcl8.6/encoding/ebcdic.enc', 'DATA'),
  ('tcl/msgs/el.msg', '/usr/lib/tcl8.6/msgs/el.msg', 'DATA'),
  ('tcl/msgs/es_ve.msg', '/usr/lib/tcl8.6/msgs/es_ve.msg', 'DATA'),
  ('tcl/msgs/hi_in.msg', '/usr/lib/tcl8.6/msgs/hi_in.msg', 'DATA'),
  ('tk/images/pwrdLogo100.gif',
   '/usr/lib/tk8.6/images/pwrdLogo100.gif',
   'DATA'),
  ('tcl/encoding/macRomania.enc',
   '/usr/lib/tcl8.6/encoding/macRomania.enc',
   'DATA'),
  ('importlib_metadata-5.0.0.dist-info/top_level.txt',
   '/usr/lib/python3.10/site-packages/importlib_metadata-5.0.0.dist-info/top_level.txt',
   'DATA'),
  ('tk/ttk/defaults.tcl', '/usr/lib/tk8.6/ttk/defaults.tcl', 'DATA'),
  ('tk/safetk.tcl', '/usr/lib/tk8.6/safetk.tcl', 'DATA'),
  ('tcl/msgs/es_do.msg', '/usr/lib/tcl8.6/msgs/es_do.msg', 'DATA'),
  ('cryptography-40.0.1-py3.10.egg-info/requires.txt',
   '/usr/lib/python3.10/site-packages/cryptography-40.0.1-py3.10.egg-info/requires.txt',
   'DATA'),
  ('tk/images/logo64.gif', '/usr/lib/tk8.6/images/logo64.gif', 'DATA'),
  ('tcl/msgs/eu_es.msg', '/usr/lib/tcl8.6/msgs/eu_es.msg', 'DATA'),
  ('tcl/msgs/zh.msg', '/usr/lib/tcl8.6/msgs/zh.msg', 'DATA'),
  ('tk/ttk/panedwindow.tcl', '/usr/lib/tk8.6/ttk/panedwindow.tcl', 'DATA'),
  ('tcl/auto.tcl', '/usr/lib/tcl8.6/auto.tcl', 'DATA'),
  ('tcl/graphviz/libtclplan.so',
   '/usr/lib/tcl8.6/graphviz/libtclplan.so',
   'DATA'),
  ('tk/msgs/es.msg', '/usr/lib/tk8.6/msgs/es.msg', 'DATA'),
  ('tk/msgs/pl.msg', '/usr/lib/tk8.6/msgs/pl.msg', 'DATA'),
  ('tcl/msgs/en_in.msg', '/usr/lib/tcl8.6/msgs/en_in.msg', 'DATA'),
  ('tk/fontchooser.tcl', '/usr/lib/tk8.6/fontchooser.tcl', 'DATA'),
  ('tk/ttk/scrollbar.tcl', '/usr/lib/tk8.6/ttk/scrollbar.tcl', 'DATA'),
  ('tcl/msgs/ms.msg', '/usr/lib/tcl8.6/msgs/ms.msg', 'DATA'),
  ('tcl/msgs/de_be.msg', '/usr/lib/tcl8.6/msgs/de_be.msg', 'DATA'),
  ('tcl/encoding/iso8859-4.enc',
   '/usr/lib/tcl8.6/encoding/iso8859-4.enc',
   'DATA'),
  ('tk/msgs/cs.msg', '/usr/lib/tk8.6/msgs/cs.msg', 'DATA'),
  ('tk/ttk/treeview.tcl', '/usr/lib/tk8.6/ttk/treeview.tcl', 'DATA'),
  ('tcl/msgs/eu.msg', '/usr/lib/tcl8.6/msgs/eu.msg', 'DATA'),
  ('tcl/graphviz/libtcldot_builtin.so',
   '/usr/lib/tcl8.6/graphviz/libtcldot_builtin.so',
   'DATA'),
  ('cryptography-40.0.1-py3.10.egg-info/top_level.txt',
   '/usr/lib/python3.10/site-packages/cryptography-40.0.1-py3.10.egg-info/top_level.txt',
   'DATA'),
  ('tcl/encoding/iso8859-13.enc',
   '/usr/lib/tcl8.6/encoding/iso8859-13.enc',
   'DATA'),
  ('tcl/init.tcl', '/usr/lib/tcl8.6/init.tcl', 'DATA'),
  ('tcl/msgs/fr_ca.msg', '/usr/lib/tcl8.6/msgs/fr_ca.msg', 'DATA'),
  ('tk/ttk/utils.tcl', '/usr/lib/tk8.6/ttk/utils.tcl', 'DATA'),
  ('tcl/msgs/ar_lb.msg', '/usr/lib/tcl8.6/msgs/ar_lb.msg', 'DATA'),
  ('tcl/msgs/ko_kr.msg', '/usr/lib/tcl8.6/msgs/ko_kr.msg', 'DATA'),
  ('tk/xmfbox.tcl', '/usr/lib/tk8.6/xmfbox.tcl', 'DATA'),
  ('tcl/msgs/it.msg', '/usr/lib/tcl8.6/msgs/it.msg', 'DATA'),
  ('tk/msgs/fi.msg', '/usr/lib/tk8.6/msgs/fi.msg', 'DATA'),
  ('tk/ttk/vistaTheme.tcl', '/usr/lib/tk8.6/ttk/vistaTheme.tcl', 'DATA'),
  ('tcl/encoding/jis0208.enc', '/usr/lib/tcl8.6/encoding/jis0208.enc', 'DATA'),
  ('tcl/opt0.4/optparse.tcl', '/usr/lib/tcl8.6/opt0.4/optparse.tcl', 'DATA'),
  ('tcl/encoding/cp1257.enc', '/usr/lib/tcl8.6/encoding/cp1257.enc', 'DATA'),
  ('tk/ttk/progress.tcl', '/usr/lib/tk8.6/ttk/progress.tcl', 'DATA'),
  ('tk/msgs/nl.msg', '/usr/lib/tk8.6/msgs/nl.msg', 'DATA'),
  ('tk/images/pwrdLogo75.gif', '/usr/lib/tk8.6/images/pwrdLogo75.gif', 'DATA'),
  ('tk/ttk/spinbox.tcl', '/usr/lib/tk8.6/ttk/spinbox.tcl', 'DATA'),
  ('tcl/encoding/cp1251.enc', '/usr/lib/tcl8.6/encoding/cp1251.enc', 'DATA'),
  ('tcl/msgs/es_gt.msg', '/usr/lib/tcl8.6/msgs/es_gt.msg', 'DATA'),
  ('tcl/encoding/dingbats.enc',
   '/usr/lib/tcl8.6/encoding/dingbats.enc',
   'DATA'),
  ('tk/ttk/aquaTheme.tcl', '/usr/lib/tk8.6/ttk/aquaTheme.tcl', 'DATA'),
  ('tcl/msgs/sl.msg', '/usr/lib/tcl8.6/msgs/sl.msg', 'DATA'),
  ('tcl/msgs/bn_in.msg', '/usr/lib/tcl8.6/msgs/bn_in.msg', 'DATA'),
  ('tk/images/logo100.gif', '/usr/lib/tk8.6/images/logo100.gif', 'DATA'),
  ('tcl/msgs/tr.msg', '/usr/lib/tcl8.6/msgs/tr.msg', 'DATA'),
  ('tcl/msgs/he.msg', '/usr/lib/tcl8.6/msgs/he.msg', 'DATA'),
  ('tcl/encoding/macUkraine.enc',
   '/usr/lib/tcl8.6/encoding/macUkraine.enc',
   'DATA'),
  ('tk/listbox.tcl', '/usr/lib/tk8.6/listbox.tcl', 'DATA'),
  ('tcl/encoding/cp437.enc', '/usr/lib/tcl8.6/encoding/cp437.enc', 'DATA'),
  ('tk/button.tcl', '/usr/lib/tk8.6/button.tcl', 'DATA'),
  ('tcl/msgs/es_hn.msg', '/usr/lib/tcl8.6/msgs/es_hn.msg', 'DATA'),
  ('tk/choosedir.tcl', '/usr/lib/tk8.6/choosedir.tcl', 'DATA'),
  ('tk/ttk/ttk.tcl', '/usr/lib/tk8.6/ttk/ttk.tcl', 'DATA'),
  ('tcl/encoding/cp863.enc', '/usr/lib/tcl8.6/encoding/cp863.enc', 'DATA'),
  ('tk/images/pwrdLogo175.gif',
   '/usr/lib/tk8.6/images/pwrdLogo175.gif',
   'DATA'),
  ('tcl/msgs/ga_ie.msg', '/usr/lib/tcl8.6/msgs/ga_ie.msg', 'DATA'),
  ('tcl/encoding/cp857.enc', '/usr/lib/tcl8.6/encoding/cp857.enc', 'DATA'),
  ('tcl/msgs/es.msg', '/usr/lib/tcl8.6/msgs/es.msg', 'DATA'),
  ('tcl/msgs/es_py.msg', '/usr/lib/tcl8.6/msgs/es_py.msg', 'DATA'),
  ('tk/obsolete.tcl', '/usr/lib/tk8.6/obsolete.tcl', 'DATA'),
  ('tcl/msgs/fo.msg', '/usr/lib/tcl8.6/msgs/fo.msg', 'DATA'),
  ('tcl/encoding/koi8-r.enc', '/usr/lib/tcl8.6/encoding/koi8-r.enc', 'DATA'),
  ('tcl/msgs/es_cl.msg', '/usr/lib/tcl8.6/msgs/es_cl.msg', 'DATA'),
  ('tcl/msgs/gv_gb.msg', '/usr/lib/tcl8.6/msgs/gv_gb.msg', 'DATA'),
  ('tk/msgs/eo.msg', '/usr/lib/tk8.6/msgs/eo.msg', 'DATA'),
  ('tcl/encoding/euc-kr.enc', '/usr/lib/tcl8.6/encoding/euc-kr.enc', 'DATA'),
  ('tk/ttk/classicTheme.tcl', '/usr/lib/tk8.6/ttk/classicTheme.tcl', 'DATA'),
  ('tcl/encoding/ksc5601.enc', '/usr/lib/tcl8.6/encoding/ksc5601.enc', 'DATA'),
  ('tcl/encoding/cp775.enc', '/usr/lib/tcl8.6/encoding/cp775.enc', 'DATA'),
  ('tcl/msgs/en_hk.msg', '/usr/lib/tcl8.6/msgs/en_hk.msg', 'DATA'),
  ('tcl/msgs/ro.msg', '/usr/lib/tcl8.6/msgs/ro.msg', 'DATA'),
  ('tcl/msgs/es_ni.msg', '/usr/lib/tcl8.6/msgs/es_ni.msg', 'DATA'),
  ('tk/images/pwrdLogo200.gif',
   '/usr/lib/tk8.6/images/pwrdLogo200.gif',
   'DATA'),
  ('tk/ttk/combobox.tcl', '/usr/lib/tk8.6/ttk/combobox.tcl', 'DATA'),
  ('tk/tkfbox.tcl', '/usr/lib/tk8.6/tkfbox.tcl', 'DATA'),
  ('tcl/encoding/cp932.enc', '/usr/lib/tcl8.6/encoding/cp932.enc', 'DATA'),
  ('tcl/msgs/nl.msg', '/usr/lib/tcl8.6/msgs/nl.msg', 'DATA'),
  ('tk/text.tcl', '/usr/lib/tk8.6/text.tcl', 'DATA'),
  ('tk/ttk/scale.tcl', '/usr/lib/tk8.6/ttk/scale.tcl', 'DATA'),
  ('tcl/encoding/gb2312.enc', '/usr/lib/tcl8.6/encoding/gb2312.enc', 'DATA'),
  ('tcl8/8.5/tcltest-2.5.5.tm',
   '/usr/lib/tcl8.6/../tcl8/8.5/tcltest-2.5.5.tm',
   'DATA'),
  ('tk/clrpick.tcl', '/usr/lib/tk8.6/clrpick.tcl', 'DATA'),
  ('tcl/msgs/fa_in.msg', '/usr/lib/tcl8.6/msgs/fa_in.msg', 'DATA'),
  ('tk/console.tcl', '/usr/lib/tk8.6/console.tcl', 'DATA'),
  ('importlib_metadata-5.0.0.dist-info/RECORD',
   '/usr/lib/python3.10/site-packages/importlib_metadata-5.0.0.dist-info/RECORD',
   'DATA'),
  ('tcl/encoding/iso8859-6.enc',
   '/usr/lib/tcl8.6/encoding/iso8859-6.enc',
   'DATA'),
  ('tcl/msgs/kw.msg', '/usr/lib/tcl8.6/msgs/kw.msg', 'DATA'),
  ('tcl/encoding/macDingbats.enc',
   '/usr/lib/tcl8.6/encoding/macDingbats.enc',
   'DATA'),
  ('tcl/msgs/zh_hk.msg', '/usr/lib/tcl8.6/msgs/zh_hk.msg', 'DATA'),
  ('tcl/http1.0/pkgIndex.tcl', '/usr/lib/tcl8.6/http1.0/pkgIndex.tcl', 'DATA'),
  ('tcl/encoding/iso8859-10.enc',
   '/usr/lib/tcl8.6/encoding/iso8859-10.enc',
   'DATA'),
  ('tcl/encoding/cp1256.enc', '/usr/lib/tcl8.6/encoding/cp1256.enc', 'DATA'),
  ('tcl/encoding/cp1250.enc', '/usr/lib/tcl8.6/encoding/cp1250.enc', 'DATA'),
  ('tcl/msgs/kok.msg', '/usr/lib/tcl8.6/msgs/kok.msg', 'DATA'),
  ('tcl/msgs/ru.msg', '/usr/lib/tcl8.6/msgs/ru.msg', 'DATA'),
  ('tcl/msgs/kok_in.msg', '/usr/lib/tcl8.6/msgs/kok_in.msg', 'DATA'),
  ('tcl/tclIndex', '/usr/lib/tcl8.6/tclIndex', 'DATA'),
  ('tcl/msgs/en_za.msg', '/usr/lib/tcl8.6/msgs/en_za.msg', 'DATA'),
  ('tcl/encoding/cp1254.enc', '/usr/lib/tcl8.6/encoding/cp1254.enc', 'DATA'),
  ('tcl/encoding/cp936.enc', '/usr/lib/tcl8.6/encoding/cp936.enc', 'DATA'),
  ('tcl/msgs/pl.msg', '/usr/lib/tcl8.6/msgs/pl.msg', 'DATA'),
  ('tcl/encoding/macGreek.enc',
   '/usr/lib/tcl8.6/encoding/macGreek.enc',
   'DATA'),
  ('tcl/msgs/af_za.msg', '/usr/lib/tcl8.6/msgs/af_za.msg', 'DATA'),
  ('tcl/msgs/en_ie.msg', '/usr/lib/tcl8.6/msgs/en_ie.msg', 'DATA'),
  ('tcl/msgs/ca.msg', '/usr/lib/tcl8.6/msgs/ca.msg', 'DATA'),
  ('tcl/encoding/tis-620.enc', '/usr/lib/tcl8.6/encoding/tis-620.enc', 'DATA'),
  ('tk/focus.tcl', '/usr/lib/tk8.6/focus.tcl', 'DATA'),
  ('tcl/word.tcl', '/usr/lib/tcl8.6/word.tcl', 'DATA'),
  ('tcl/clock.tcl', '/usr/lib/tcl8.6/clock.tcl', 'DATA'),
  ('tcl/msgs/uk.msg', '/usr/lib/tcl8.6/msgs/uk.msg', 'DATA'),
  ('tcl/msgs/id.msg', '/usr/lib/tcl8.6/msgs/id.msg', 'DATA'),
  ('tcl/msgs/nn.msg', '/usr/lib/tcl8.6/msgs/nn.msg', 'DATA'),
  ('tcl/encoding/cp1258.enc', '/usr/lib/tcl8.6/encoding/cp1258.enc', 'DATA'),
  ('tcl/msgs/zh_cn.msg', '/usr/lib/tcl8.6/msgs/zh_cn.msg', 'DATA'),
  ('tcl/encoding/cp852.enc', '/usr/lib/tcl8.6/encoding/cp852.enc', 'DATA'),
  ('importlib_metadata-5.0.0.dist-info/METADATA',
   '/usr/lib/python3.10/site-packages/importlib_metadata-5.0.0.dist-info/METADATA',
   'DATA'),
  ('tk/ttk/winTheme.tcl', '/usr/lib/tk8.6/ttk/winTheme.tcl', 'DATA'),
  ('tk/megawidget.tcl', '/usr/lib/tk8.6/megawidget.tcl', 'DATA'),
  ('tcl/msgs/en_gb.msg', '/usr/lib/tcl8.6/msgs/en_gb.msg', 'DATA'),
  ('tcl/msgs/en_zw.msg', '/usr/lib/tcl8.6/msgs/en_zw.msg', 'DATA'),
  ('tcl/encoding/shiftjis.enc',
   '/usr/lib/tcl8.6/encoding/shiftjis.enc',
   'DATA'),
  ('tcl/msgs/sv.msg', '/usr/lib/tcl8.6/msgs/sv.msg', 'DATA'),
  ('tcl/encoding/iso8859-5.enc',
   '/usr/lib/tcl8.6/encoding/iso8859-5.enc',
   'DATA'),
  ('tcl/msgs/hi.msg', '/usr/lib/tcl8.6/msgs/hi.msg', 'DATA'),
  ('tk/tearoff.tcl', '/usr/lib/tk8.6/tearoff.tcl', 'DATA'),
  ('tcl8/8.4/platform/shell-1.1.4.tm',
   '/usr/lib/tcl8.6/../tcl8/8.4/platform/shell-1.1.4.tm',
   'DATA'),
  ('tcl/msgs/ta_in.msg', '/usr/lib/tcl8.6/msgs/ta_in.msg', 'DATA'),
  ('tcl/msgs/es_pa.msg', '/usr/lib/tcl8.6/msgs/es_pa.msg', 'DATA'),
  ('tk/iconlist.tcl', '/usr/lib/tk8.6/iconlist.tcl', 'DATA'),
  ('tk/entry.tcl', '/usr/lib/tk8.6/entry.tcl', 'DATA'),
  ('tcl/encoding/macJapan.enc',
   '/usr/lib/tcl8.6/encoding/macJapan.enc',
   'DATA'),
  ('tk/ttk/cursors.tcl', '/usr/lib/tk8.6/ttk/cursors.tcl', 'DATA'),
  ('tk/pkgIndex.tcl', '/usr/lib/tk8.6/pkgIndex.tcl', 'DATA'),
  ('tcl/msgs/mt.msg', '/usr/lib/tcl8.6/msgs/mt.msg', 'DATA'),
  ('tcl/msgs/ms_my.msg', '/usr/lib/tcl8.6/msgs/ms_my.msg', 'DATA'),
  ('importlib_metadata-5.0.0.dist-info/WHEEL',
   '/usr/lib/python3.10/site-packages/importlib_metadata-5.0.0.dist-info/WHEEL',
   'DATA'),
  ('tcl/encoding/macIceland.enc',
   '/usr/lib/tcl8.6/encoding/macIceland.enc',
   'DATA'),
  ('tcl/msgs/mr_in.msg', '/usr/lib/tcl8.6/msgs/mr_in.msg', 'DATA'),
  ('tcl/encoding/euc-jp.enc', '/usr/lib/tcl8.6/encoding/euc-jp.enc', 'DATA'),
  ('tcl/msgs/es_pr.msg', '/usr/lib/tcl8.6/msgs/es_pr.msg', 'DATA'),
  ('tk/msgs/de.msg', '/usr/lib/tk8.6/msgs/de.msg', 'DATA'),
  ('tk/msgs/zh_cn.msg', '/usr/lib/tk8.6/msgs/zh_cn.msg', 'DATA'),
  ('tcl/msgs/kl.msg', '/usr/lib/tcl8.6/msgs/kl.msg', 'DATA'),
  ('tk/menu.tcl', '/usr/lib/tk8.6/menu.tcl', 'DATA'),
  ('tcl/msgs/en_sg.msg', '/usr/lib/tcl8.6/msgs/en_sg.msg', 'DATA'),
  ('tk/panedwindow.tcl', '/usr/lib/tk8.6/panedwindow.tcl', 'DATA'),
  ('tcl/msgs/gl_es.msg', '/usr/lib/tcl8.6/msgs/gl_es.msg', 'DATA'),
  ('tcl/msgs/ar_sy.msg', '/usr/lib/tcl8.6/msgs/ar_sy.msg', 'DATA'),
  ('tk/images/pwrdLogo150.gif',
   '/usr/lib/tk8.6/images/pwrdLogo150.gif',
   'DATA'),
  ('tcl/msgs/vi.msg', '/usr/lib/tcl8.6/msgs/vi.msg', 'DATA'),
  ('tcl/msgs/hu.msg', '/usr/lib/tcl8.6/msgs/hu.msg', 'DATA'),
  ('tk/ttk/sizegrip.tcl', '/usr/lib/tk8.6/ttk/sizegrip.tcl', 'DATA'),
  ('tcl/msgs/ja.msg', '/usr/lib/tcl8.6/msgs/ja.msg', 'DATA'),
  ('tk/msgs/pt.msg', '/usr/lib/tk8.6/msgs/pt.msg', 'DATA'),
  ('tcl/msgs/id_id.msg', '/usr/lib/tcl8.6/msgs/id_id.msg', 'DATA'),
  ('tcl/msgs/es_bo.msg', '/usr/lib/tcl8.6/msgs/es_bo.msg', 'DATA'),
  ('tcl/encoding/macCroatian.enc',
   '/usr/lib/tcl8.6/encoding/macCroatian.enc',
   'DATA'),
  ('tcl/msgs/te.msg', '/usr/lib/tcl8.6/msgs/te.msg', 'DATA'),
  ('tcl/msgs/be.msg', '/usr/lib/tcl8.6/msgs/be.msg', 'DATA'),
  ('tk/images/pwrdLogo.eps', '/usr/lib/tk8.6/images/pwrdLogo.eps', 'DATA'),
  ('tcl/graphviz/libgv_tcl.so',
   '/usr/lib/tcl8.6/graphviz/libgv_tcl.so',
   'DATA'),
  ('tcl/encoding/gb1988.enc', '/usr/lib/tcl8.6/encoding/gb1988.enc', 'DATA'),
  ('tcl/encoding/macCentEuro.enc',
   '/usr/lib/tcl8.6/encoding/macCentEuro.enc',
   'DATA'),
  ('tcl/msgs/da.msg', '/usr/lib/tcl8.6/msgs/da.msg', 'DATA'),
  ('tcl/msgs/ru_ua.msg', '/usr/lib/tcl8.6/msgs/ru_ua.msg', 'DATA'),
  ('cryptography-40.0.1-py3.10.egg-info/SOURCES.txt',
   '/usr/lib/python3.10/site-packages/cryptography-40.0.1-py3.10.egg-info/SOURCES.txt',
   'DATA'),
  ('tk/ttk/fonts.tcl', '/usr/lib/tk8.6/ttk/fonts.tcl', 'DATA'),
  ('tk/dialog.tcl', '/usr/lib/tk8.6/dialog.tcl', 'DATA'),
  ('tcl/encoding/iso2022.enc', '/usr/lib/tcl8.6/encoding/iso2022.enc', 'DATA'),
  ('tcl/msgs/es_ec.msg', '/usr/lib/tcl8.6/msgs/es_ec.msg', 'DATA'),
  ('tcl/msgs/mk.msg', '/usr/lib/tcl8.6/msgs/mk.msg', 'DATA'),
  ('tcl/msgs/et.msg', '/usr/lib/tcl8.6/msgs/et.msg', 'DATA'),
  ('tcl/msgs/af.msg', '/usr/lib/tcl8.6/msgs/af.msg', 'DATA'),
  ('tcl/encoding/iso8859-3.enc',
   '/usr/lib/tcl8.6/encoding/iso8859-3.enc',
   'DATA'),
  ('tk/palette.tcl', '/usr/lib/tk8.6/palette.tcl', 'DATA'),
  ('tk/images/logoMed.gif', '/usr/lib/tk8.6/images/logoMed.gif', 'DATA'),
  ('tcl/msgs/sq.msg', '/usr/lib/tcl8.6/msgs/sq.msg', 'DATA'),
  ('tcl/encoding/gb2312-raw.enc',
   '/usr/lib/tcl8.6/encoding/gb2312-raw.enc',
   'DATA'),
  ('tcl/encoding/symbol.enc', '/usr/lib/tcl8.6/encoding/symbol.enc', 'DATA'),
  ('tcl/msgs/hr.msg', '/usr/lib/tcl8.6/msgs/hr.msg', 'DATA'),
  ('tcl/msgs/es_co.msg', '/usr/lib/tcl8.6/msgs/es_co.msg', 'DATA'),
  ('tcl/msgs/kl_gl.msg', '/usr/lib/tcl8.6/msgs/kl_gl.msg', 'DATA'),
  ('tk/tclIndex', '/usr/lib/tk8.6/tclIndex', 'DATA'),
  ('cryptography-40.0.1-py3.10.egg-info/dependency_links.txt',
   '/usr/lib/python3.10/site-packages/cryptography-40.0.1-py3.10.egg-info/dependency_links.txt',
   'DATA'),
  ('tk/msgs/en.msg', '/usr/lib/tk8.6/msgs/en.msg', 'DATA'),
  ('tcl/encoding/iso8859-7.enc',
   '/usr/lib/tcl8.6/encoding/iso8859-7.enc',
   'DATA'),
  ('importlib_metadata-5.0.0.dist-info/LICENSE',
   '/usr/lib/python3.10/site-packages/importlib_metadata-5.0.0.dist-info/LICENSE',
   'DATA'),
  ('tcl/opt0.4/pkgIndex.tcl', '/usr/lib/tcl8.6/opt0.4/pkgIndex.tcl', 'DATA'),
  ('tcl/encoding/koi8-u.enc', '/usr/lib/tcl8.6/encoding/koi8-u.enc', 'DATA'),
  ('tcl/msgs/de_at.msg', '/usr/lib/tcl8.6/msgs/de_at.msg', 'DATA'),
  ('tcl/msgs/es_uy.msg', '/usr/lib/tcl8.6/msgs/es_uy.msg', 'DATA'),
  ('tk/tk.tcl', '/usr/lib/tk8.6/tk.tcl', 'DATA'),
  ('tk/images/README', '/usr/lib/tk8.6/images/README', 'DATA'),
  ('tcl/msgs/es_mx.msg', '/usr/lib/tcl8.6/msgs/es_mx.msg', 'DATA')],)
